R0 @512c4 r4 r2 
R1 r2 r4 @1c16 @1c16 @1c8 
R2 @1c8 r8 r4 r2 
R3 r2 r4 @129c16 @129c16 @193c16 @129c16 
R4 @129c16 @128c16 @128c16 @128c16 @129c16 @128c16 @128c16 @128c16 @129c16 @128c16 @128c16 @128c16 @129c16 @128c16 @128c16 @128c16 
R5 @129c16 @128c16 @128c16 @128c16 @129c16 @128c16 @128c16 @128c16 @129c16 @129c16 @129c16 @129c16 @129c16 @128c16 @129c16 @128c16 
R6 @129c16 @128c16 @128c16 @128c16 @129c16 @128c16 @128c16 @128c16 @161c16 @128c16 @128c16 @160c16 @193c16 @128c16 @128c16 @128c16 
R7 @129c16 @128c16 @128c16 @128c16 @129c16 @128c16 @128c32 @64c32 @193c32 @64c32 @129c32 r32 @128c16 @128c16 @193c16 @193c16 @193c16 @193c16 @129c16 
R8 @705c8 @128c8 @128c16 @128c16 @128c8 @128c8 @128c16 @128c16 @128c8 @705c8 
R9 @128c8 @128c8 @128c16 @128c16 @128c8 @128c8 @128c16 @128c16 @128c8 @705c8 
R10 @129c8 @384c8 @193c16 @128c16 @384c8 @129c8 @384c16 @128c16 @193c8 @384c8 
; Measure 12 found at R10
; Measure 13 found at R8
R11 @128c8 @128c8 @128c16 @128c16 @128c8 @129c16 @1c16 @129c16 @129c16 @129c8 @705c8 
; Measure 15 found at R10
R12 @129c8 @448c16 @64c16 @193c16 @128c16 @384c16 @64c16 @129c16 @64c16 @448c16 @128c16 @193c16 @65c16 @449c16 @65c16 
R13 @705c8 @384c8 @193c16 @128c16 @384c8 @193c8 @384c16 @193c16 @128c16 r16 @961c8 
R14 @128c8 @384c8 @193c16 @128c16 @384c8 @193c8 @384c16 @193c16 @128c16 r16 @961c8 
; Measure 19 found at R10
R15 @129c8 @384c8 @193c16 @128c16 @384c8 @129c16 @1c16 @385c16 @129c16 @193c8 @384c8 
; Measure 21 found at R13
R16 @128c8 @384c8 @193c16 @128c16 @384c8 @193c16 @65c16 @449c16 @193c16 @193c16 r16 @961c8 
R17 @128c8 @128c16 @128c16 @129c16 @128c16 @128c16 @128c16 @129c16 @128c16 @128c16 @128c16 @129c16 @128c16 @641c8 
R18 r4 @129c16 @1c32 @1c32 @129c32 @129c32 @129c32 @128c32 @131c16 @130c16 @131c16 @130c16 @193c16 @193c16 @193c16 @193c16 
R19 @641c8 @384c16 @128c16 @193c16 @128c16 @384c16 @128c16 @129c16 @128c16 @384c16 @128c16 @193c16 @128c16 @448c16 @128c16 
R20 @129c8 @384c16 @128c16 @193c16 @128c16 @384c16 @128c16 @129c16 @128c16 @384c16 @128c16 @193c16 @128c16 @448c16 @128c16 
; Measure 27 found at R20
; Measure 28 found at R20
; Measure 29 found at R20
; Measure 30 found at R20
; Measure 31 found at R20
R21 @129c8 @384c16 @128c16 @193c16 @128c16 @384c16 @128c16 @129c16 @128c16 @448c16 @192c16 @193c16 @192c16 @387c16 @131c16 
; Measure 33 found at R19
; Measure 34 found at R20
; Measure 35 found at R20
; Measure 36 found at R20
; Measure 37 found at R20
; Measure 38 found at R20
; Measure 39 found at R20
R22 @129c8 @384c16 @128c16 @193c16 @128c16 @385c16 @128c16 @193c16 @193c16 @449c16 @193c16 @193c16 @128c16 @449c16 @193c16 
R23 @193c8 @384c16 @128c16 @128c16 @128c16 @385c16 @129c16 @193c16 @128c16 @384c16 @128c16 @128c16 @128c16 @385c16 @129c16 
R24 @193c8 @384c16 @192c16 @128c16 @128c16 @449c16 @129c16 @193c16 @128c16 @385c16 @128c16 @193c16 @193c16 @449c16 @129c16 
; Measure 43 found at R23
; Measure 44 found at R24
R25 @129c8 @384c16 @128c16 @193c16 @128c16 @385c16 @129c16 @129c16 @128c16 @384c16 @128c16 @193c16 @128c16 @385c16 @129c16 
R26 @193c8 @384c16 @192c16 @129c16 @128c16 @449c16 @129c16 @193c16 @128c16 @385c16 @128c16 @193c16 @193c16 @449c16 @129c16 
; Measure 47 found at R25
R27 @193c16 @64c16 @448c16 @192c16 @193c16 @192c16 @451c16 @195c16 @195c16 @130c16 @387c16 @131c16 @192c16 @192c16 @449c16 @192c16 
; Measure 49 found at R0
; Measure 50 found at R1
R28 @1c8 r8 r4 r4 @1c8 r8 
; Measure 52 found at R3
; Measure 53 found at R4
; Measure 54 found at R5
; Measure 55 found at R6
; Measure 56 found at R7
R29 @705c8 @128c8 @128c16 @128c16 @128c8 @129c8 @128c16 @128c16 @128c8 @705c8 
; Measure 58 found at R11
R30 @128c8 @385c8 @193c16 @128c16 @384c8 @129c8 @385c16 @129c16 @193c8 @384c8 
R31 @129c8 @384c8 @193c16 @128c16 @384c8 @129c8 @385c16 @129c16 @193c8 @385c8 
R32 @705c8 @128c8 @128c16 @128c16 @128c8 @129c16 @1c16 @129c16 @129c16 @129c8 @705c8 
; Measure 62 found at R11
; Measure 63 found at R30
R33 @129c8 @448c16 @64c16 @193c16 @128c16 @384c16 @64c16 @129c16 @64c16 @449c16 @129c16 @193c16 @64c16 @449c16 @64c16 
; Measure 65 found at R13
; Measure 66 found at R14
; Measure 67 found at R10
; Measure 68 found at R15
; Measure 69 found at R13
; Measure 70 found at R16
; Measure 71 found at R17
; Measure 72 found at R18
; Measure 73 found at R19
; Measure 74 found at R20
; Measure 75 found at R20
; Measure 76 found at R20
; Measure 77 found at R20
; Measure 78 found at R20
; Measure 79 found at R20
; Measure 80 found at R21
; Measure 81 found at R19
; Measure 82 found at R20
; Measure 83 found at R20
; Measure 84 found at R20
; Measure 85 found at R20
; Measure 86 found at R20
; Measure 87 found at R20
; Measure 88 found at R22
; Measure 89 found at R23
; Measure 90 found at R24
; Measure 91 found at R23
; Measure 92 found at R24
; Measure 93 found at R25
; Measure 94 found at R26
; Measure 95 found at R25
R34 @193c16 @64c16 @448c16 @192c16 @193c16 @192c16 @451c16 @195c16 @195c16 @130c16 @387c16 @130c16 @193c16 @193c16 @449c16 @193c16 
R35 @577c8 r8 r8 @1c16 @1c16 @1c8 r8 r8 @1c16 @1c16 @1c8 @34c16 @34c16 @35c16 @1c16 @577c16 @65c16 
R36 @1c8 @256c8 @1c8 @256c8 @1c8 @256c8 @1c16 @1c16 @257c8 
R37 r8 @256c8 @1c8 @256c8 @1c8 @256c8 @1c16 @1c16 @257c8 
; Measure 100 found at R37
; Measure 101 found at R37
; Measure 102 found at R37
; Measure 103 found at R37
; Measure 104 found at R37
R38 @64c8 @256c8 @65c8 @256c8 @65c8 @320c8 @65c16 @65c16 @321c16 @64c16 
R39 @1c8 @256c8 @1c8 @320c8 @1c8 @256c8 @65c16 @1c16 @321c8 
R40 r8 @256c8 @65c8 @256c8 @1c8 @256c8 @65c16 @1c16 @321c8 
R41 r8 @256c8 @1c8 @320c8 @1c8 @256c8 @65c16 @1c16 @321c8 
R42 r8 @257c16 @1c16 @65c16 @64c16 @321c16 @65c16 @65c8 @321c16 @64c16 @65c16 @65c16 @833c8 
R43 @512c8 r8 r4 r8 @1c16 @1c16 @577c16 r16 @513c8 
; Measure 111 found at R43
R44 @512c8 r8 r4 r8 @257c16 @256c16 @257c32 @256c32 @257c32 @256c32 @257c16 @257c16 
R45 @385c16 @128c16 @129c16 @128c16 @193c16 @128c16 @192c16 @128c16 @193c16 @193c16 @193c16 @193c16 @193c16 @129c16 @193c16 @192c16 
R46 @641c16 @128c16 @384c16 @128c16 @193c16 @128c16 @384c16 @128c16 @129c16 @128c16 @384c16 @128c16 @705c16 @129c16 @961c16 @128c16 
R47 @640c16 @128c16 @384c16 @128c16 @193c16 @128c16 @384c16 @128c16 @129c16 @128c16 @384c16 @128c16 @705c16 @129c16 @961c16 @128c16 
; Measure 116 found at R46
; Measure 117 found at R47
; Measure 118 found at R46
; Measure 119 found at R47
R48 @640c16 @128c16 @384c16 @128c16 @193c16 @128c16 @960c16 @128c16 @129c16 @128c16 @384c16 @704c16 @129c16 @129c16 @961c16 @128c16 
R49 @705c16 @128c16 @384c16 @128c16 @705c16 @128c16 @384c16 @128c16 @705c16 @128c16 @960c16 @192c16 @643c16 @131c16 @961c16 @192c16 
; Measure 122 found at R46
; Measure 123 found at R47
; Measure 124 found at R46
; Measure 125 found at R47
; Measure 126 found at R46
; Measure 127 found at R47
R50 @641c16 @128c16 @384c16 @128c16 @193c16 @128c16 @960c16 @128c16 @193c16 @128c16 @384c16 @704c16 @129c16 @129c16 @961c16 @128c16 
R51 @705c16 @128c16 @384c16 @128c16 @705c16 @128c16 @384c16 @128c16 @705c16 @128c16 @448c16 @128c16 @705c16 @193c16 @449c16 @128c16 
R52 @64c1 
R53 r1 
; Measure 132 found at R53
; Measure 133 found at R53
; Measure 134 found at R53
