R0 r2&4 
; Measure 2 found at R0
; Measure 3 found at R0
; Measure 4 found at R0
; Measure 5 found at R0
; Measure 6 found at R0
; Measure 7 found at R0
; Measure 8 found at R0
; Measure 9 found at R0
; Measure 10 found at R0
; Measure 11 found at R0
; Measure 12 found at R0
; Measure 13 found at R0
; Measure 14 found at R0
; Measure 15 found at R0
; Measure 16 found at R0
; Measure 17 found at R0
R1 @17c8 @4c8 @4c8 @162c8 @4c8 @4c8 
R2 @17c8 @4c8 @162c8 @4c8 @17c8 @4c8 
; Measure 20 found at R1
; Measure 21 found at R2
; Measure 22 found at R1
; Measure 23 found at R2
; Measure 24 found at R1
; Measure 25 found at R2
; Measure 26 found at R1
; Measure 27 found at R2
; Measure 28 found at R1
; Measure 29 found at R2
; Measure 30 found at R1
; Measure 31 found at R2
; Measure 32 found at R1
R3 @1c2 @1c8 @512c64 @512c64 @512c64 @512c64 @512c64 @512c64 @512c64 @512c64 @512c64 @512c64 @512c64 @512c64 @512c64 @512c64 @512c64 @512c64 @512c64 @512c64 @512c64 @512c64 @512c64 @512c64 @512c64 @512c64 
R4 @21c8 @1c16 @20c16 @131c16 @4c16 @1c16 @130c16 @21c8 @5c16 @16c16 @131c8 @5c8 
; Measure 35 found at R4
; Measure 36 found at R4
; Measure 37 found at R4
; Measure 38 found at R4
; Measure 39 found at R4
; Measure 40 found at R4
R5 @21c8 @1c16 @20c16 @131c16 @4c16 @1c16 @130c16 @21c8 @5c16 @16c16 @643c8 @5c8 
R6 @533c8 @1c16 @20c16 @131c16 @4c16 @1c16 @130c16 @21c8 @5c16 @16c16 @131c8 @5c8 
; Measure 43 found at R4
; Measure 44 found at R4
; Measure 45 found at R4
; Measure 46 found at R4
; Measure 47 found at R4
; Measure 48 found at R4
; Measure 49 found at R5
R7 @516c8 @68c8 @130c8 @4c8 @130c8 @4c16 @4c16 @642c8 @642c8 
; Measure 51 found at R7
R8 @516c8 @68c8 @130c8 @4c8 @130c8 @4c16 @4c16 @642c8 @130c8 
R9 @516c8 @130c16 @130c16 @4c8 @130c16 @130c16 @4c16 @130c16 @130c16 @130c16 @130c8 @130c8 
; Measure 54 found at R7
; Measure 55 found at R7
; Measure 56 found at R8
R10 @513c4 @513c4 @513c4 @513c8 @1c8 
R11 @529c8 @4c8 @4c8 @162c8 @4c8 @4c8 
; Measure 59 found at R2
; Measure 60 found at R1
; Measure 61 found at R2
; Measure 62 found at R1
; Measure 63 found at R2
; Measure 64 found at R1
; Measure 65 found at R2
; Measure 66 found at R1
; Measure 67 found at R2
; Measure 68 found at R1
; Measure 69 found at R2
; Measure 70 found at R1
; Measure 71 found at R2
; Measure 72 found at R1
; Measure 73 found at R2
; Measure 74 found at R1
; Measure 75 found at R2
; Measure 76 found at R1
; Measure 77 found at R2
; Measure 78 found at R1
; Measure 79 found at R2
; Measure 80 found at R1
; Measure 81 found at R2
; Measure 82 found at R1
; Measure 83 found at R2
; Measure 84 found at R1
; Measure 85 found at R2
; Measure 86 found at R1
; Measure 87 found at R2
; Measure 88 found at R1
; Measure 89 found at R3
; Measure 90 found at R6
; Measure 91 found at R4
; Measure 92 found at R4
; Measure 93 found at R4
; Measure 94 found at R4
; Measure 95 found at R4
; Measure 96 found at R4
; Measure 97 found at R5
; Measure 98 found at R7
; Measure 99 found at R7
; Measure 100 found at R8
; Measure 101 found at R9
; Measure 102 found at R7
; Measure 103 found at R7
; Measure 104 found at R8
; Measure 105 found at R10
R12 @8c8 r8 r4 r4 
; Measure 107 found at R0
; Measure 108 found at R0
; Measure 109 found at R0
; Measure 110 found at R0
; Measure 111 found at R0
; Measure 112 found at R0
; Measure 113 found at R0
; Measure 114 found at R0
; Measure 115 found at R0
; Measure 116 found at R0
; Measure 117 found at R0
; Measure 118 found at R0
; Measure 119 found at R0
; Measure 120 found at R0
R13 r4 r8 @512c64 @512c64 @512c64 @512c64 @512c64 @512c64 @512c64 @512c64 @512c64 @512c64 @512c64 @512c64 @512c64 @512c64 @512c64 @512c64 @512c64 @512c64 @512c64 @512c64 @512c64 @512c64 @512c64 @512c64 
; Measure 122 found at R1
; Measure 123 found at R2
; Measure 124 found at R1
; Measure 125 found at R2
; Measure 126 found at R1
; Measure 127 found at R2
; Measure 128 found at R1
; Measure 129 found at R2
; Measure 130 found at R1
; Measure 131 found at R2
; Measure 132 found at R1
; Measure 133 found at R2
; Measure 134 found at R1
; Measure 135 found at R2
; Measure 136 found at R1
R14 @17c8 @4c8 @162c8 @4c8 @529c8 @4c8 
; Measure 138 found at R11
; Measure 139 found at R2
; Measure 140 found at R1
; Measure 141 found at R2
; Measure 142 found at R1
; Measure 143 found at R2
; Measure 144 found at R1
; Measure 145 found at R2
; Measure 146 found at R1
; Measure 147 found at R2
; Measure 148 found at R1
; Measure 149 found at R2
; Measure 150 found at R1
; Measure 151 found at R2
; Measure 152 found at R1
; Measure 153 found at R2
; Measure 154 found at R11
; Measure 155 found at R2
; Measure 156 found at R1
; Measure 157 found at R2
; Measure 158 found at R1
; Measure 159 found at R2
; Measure 160 found at R1
; Measure 161 found at R2
; Measure 162 found at R1
; Measure 163 found at R2
; Measure 164 found at R1
; Measure 165 found at R2
; Measure 166 found at R1
; Measure 167 found at R2
; Measure 168 found at R1
R15 @17c8 @4c8 @162c8 @516c64 @512c64 @512c64 @512c64 @512c64 @512c64 @512c64 @512c64 @529c64 @512c64 @512c64 @512c64 @512c64 @512c64 @512c64 @512c64 @516c64 @512c64 @512c64 @512c64 @512c64 @512c64 @512c64 @512c64 
; Measure 170 found at R1
; Measure 171 found at R2
; Measure 172 found at R1
; Measure 173 found at R2
; Measure 174 found at R1
; Measure 175 found at R2
; Measure 176 found at R1
; Measure 177 found at R2
; Measure 178 found at R1
; Measure 179 found at R2
; Measure 180 found at R1
; Measure 181 found at R2
; Measure 182 found at R1
; Measure 183 found at R2
; Measure 184 found at R1
; Measure 185 found at R2
; Measure 186 found at R1
; Measure 187 found at R2
; Measure 188 found at R1
; Measure 189 found at R2
; Measure 190 found at R1
; Measure 191 found at R2
; Measure 192 found at R11
; Measure 193 found at R2
; Measure 194 found at R11
; Measure 195 found at R15
; Measure 196 found at R0
