R0 @1025c4 r4 
R1 @1024c4 r4 
; Measure 3 found at R0
; Measure 4 found at R1
; Measure 5 found at R0
; Measure 6 found at R1
R2 @1025c4 @1025c4 
R3 @1025c4 @1025c16 @64c16 @4c16 @1c16 
R4 @641c16 @128c16 @192c16 @128c16 @129c16 @128c16 @192c16 @128c16 
R5 @129c16 @128c16 @192c16 @128c16 @129c16 @128c16 @192c16 @128c16 
; Measure 11 found at R5
R6 @129c16 @128c16 @192c16 @128c16 @129c16 @192c16 @192c16 @129c16 
; Measure 13 found at R5
; Measure 14 found at R5
; Measure 15 found at R5
R7 @129c16 @128c16 @192c16 @129c16 @129c16 @192c16 @192c16 @128c16 
; Measure 17 found at R5
R8 @513c16 @192c16 @192c16 @129c16 @129c16 @128c16 @192c16 @128c16 
R9 @129c16 @128c16 @192c16 @128c16 @129c16 @129c16 @192c16 @129c16 
; Measure 20 found at R8
R10 @513c16 @128c16 @192c16 @128c16 @129c16 @128c16 @192c16 @128c16 
; Measure 22 found at R10
R11 @513c16 @129c16 @192c16 @192c16 @129c16 @129c16 @192c16 @192c16 
R12 @513c16 @192c16 @1540c16 @129c16 @192c16 @516c16 @144c16 @132c16 
; Measure 25 found at R4
; Measure 26 found at R5
; Measure 27 found at R5
; Measure 28 found at R6
; Measure 29 found at R5
; Measure 30 found at R5
; Measure 31 found at R5
; Measure 32 found at R7
; Measure 33 found at R5
; Measure 34 found at R8
; Measure 35 found at R9
; Measure 36 found at R8
; Measure 37 found at R10
; Measure 38 found at R10
; Measure 39 found at R11
; Measure 40 found at R12
; Measure 41 found at R4
; Measure 42 found at R5
; Measure 43 found at R5
; Measure 44 found at R5
; Measure 45 found at R5
; Measure 46 found at R5
; Measure 47 found at R5
R13 @129c16 @128c16 @192c16 @128c16 @257c16 @128c16 @192c16 @129c16 
; Measure 49 found at R5
; Measure 50 found at R5
; Measure 51 found at R5
; Measure 52 found at R5
; Measure 53 found at R5
; Measure 54 found at R5
R14 @192c16 @129c16 @129c16 @192c16 @132c16 @129c16 @192c16 @129c16 
R15 @576c16 @1c16 @1c16 @576c16 @1c16 @1c16 @1600c16 @1c16 
R16 @641c16 @128c16 @192c16 @128c16 @129c16 @128c16 @192c16 @129c16 
; Measure 58 found at R5
R17 @129c16 @128c16 @192c16 @128c16 @129c16 @128c16 @192c16 @129c16 
R18 @129c16 @129c16 @192c16 @129c16 @129c16 @128c16 @192c16 @128c16 
; Measure 61 found at R17
; Measure 62 found at R5
; Measure 63 found at R5
; Measure 64 found at R5
; Measure 65 found at R5
; Measure 66 found at R5
; Measure 67 found at R5
; Measure 68 found at R5
; Measure 69 found at R5
; Measure 70 found at R5
; Measure 71 found at R5
; Measure 72 found at R5
; Measure 73 found at R5
; Measure 74 found at R5
; Measure 75 found at R5
; Measure 76 found at R5
; Measure 77 found at R5
; Measure 78 found at R5
; Measure 79 found at R5
; Measure 80 found at R5
; Measure 81 found at R5
; Measure 82 found at R5
; Measure 83 found at R5
; Measure 84 found at R5
; Measure 85 found at R10
; Measure 86 found at R10
; Measure 87 found at R11
; Measure 88 found at R12
; Measure 89 found at R4
; Measure 90 found at R5
; Measure 91 found at R5
; Measure 92 found at R6
; Measure 93 found at R5
; Measure 94 found at R5
; Measure 95 found at R5
; Measure 96 found at R5
; Measure 97 found at R4
; Measure 98 found at R5
; Measure 99 found at R5
; Measure 100 found at R6
; Measure 101 found at R5
; Measure 102 found at R5
; Measure 103 found at R5
; Measure 104 found at R7
; Measure 105 found at R5
; Measure 106 found at R8
; Measure 107 found at R9
; Measure 108 found at R8
; Measure 109 found at R10
; Measure 110 found at R10
; Measure 111 found at R11
; Measure 112 found at R12
; Measure 113 found at R4
; Measure 114 found at R5
; Measure 115 found at R5
; Measure 116 found at R6
; Measure 117 found at R5
; Measure 118 found at R5
; Measure 119 found at R5
; Measure 120 found at R7
; Measure 121 found at R5
; Measure 122 found at R8
; Measure 123 found at R9
; Measure 124 found at R8
; Measure 125 found at R10
; Measure 126 found at R10
; Measure 127 found at R11
; Measure 128 found at R12
; Measure 129 found at R4
; Measure 130 found at R5
; Measure 131 found at R5
; Measure 132 found at R5
; Measure 133 found at R5
; Measure 134 found at R5
; Measure 135 found at R5
; Measure 136 found at R13
; Measure 137 found at R5
; Measure 138 found at R5
; Measure 139 found at R5
; Measure 140 found at R5
; Measure 141 found at R5
; Measure 142 found at R5
; Measure 143 found at R14
; Measure 144 found at R15
; Measure 145 found at R16
; Measure 146 found at R5
; Measure 147 found at R17
; Measure 148 found at R18
; Measure 149 found at R17
; Measure 150 found at R5
; Measure 151 found at R5
; Measure 152 found at R5
; Measure 153 found at R5
; Measure 154 found at R5
; Measure 155 found at R5
; Measure 156 found at R5
; Measure 157 found at R5
; Measure 158 found at R5
; Measure 159 found at R5
; Measure 160 found at R5
; Measure 161 found at R5
; Measure 162 found at R5
; Measure 163 found at R5
; Measure 164 found at R5
; Measure 165 found at R5
; Measure 166 found at R5
; Measure 167 found at R5
; Measure 168 found at R5
; Measure 169 found at R5
; Measure 170 found at R5
; Measure 171 found at R5
; Measure 172 found at R5
; Measure 173 found at R10
; Measure 174 found at R10
; Measure 175 found at R11
; Measure 176 found at R12
; Measure 177 found at R4
; Measure 178 found at R5
R19 @128c16 @128c16 @192c16 @128c16 @128c16 @128c16 @192c16 @128c16 
; Measure 180 found at R19
; Measure 181 found at R19
; Measure 182 found at R19
; Measure 183 found at R19
R20 @512c16 @8c16 @68c16 @16c16 @520c16 @4c16 @80c16 @4c16 
R21 r2 
