R0 @1537c8 @1024c8 r8 @1024c8 @1024c8&16 @1024c16 r8 @1026c32 @2c32 @2c32 @2c32 
R1 @1025c8 @1024c8 r8 @1024c8 @1024c8&16 @1024c16 r8 @1024c8 
R2 @1025c8 @1024c8 r8 @1025c8 @1024c8&16 @1024c16 @1c8 @1026c32 @2c32 @2c32 @2c32 
R3 @1025c8 @1024c8 r8 @1024c8 @1024c8&16 @1024c16 @3c16 @3c16 @1027c8 
; Measure 5 found at R0
; Measure 6 found at R1
; Measure 7 found at R2
R4 @1091c32 @66c32 @66c32 @66c32 @1090c32 @66c32 @66c32 @66c32 @66c32 @66c32 @66c32 @66c32 @1090c32 @66c32 @66c32 @66c32 @1090c32 @66c32 @66c32 @66c32 @66c32 @66c32 @1090c32 @66c32 @67c32 @66c32 @67c32 @66c32 @1091c32 @66c32 @67c32 @66c32 
R5 @641c8 @256c8 @320c8 @128c16 @128c16 @129c16 @128c16 @257c32 @1c32 @129c32 @1c32 @321c8 @129c32 @1c32 @1c32 @1c32 
R6 @129c8 @256c8 @320c8 @128c16 @128c16 @129c16 @128c16 @257c16 @128c16 @320c8 @129c32 @1c32 @1c32 @1c32 
R7 @641c8 @257c32 @1c32 @1c32 @1c32 @321c8 @128c16 @128c16 @129c16 @128c16 @257c16 @128c16 @320c8 @129c32 @1c32 @1c32 @1c32 
R8 @129c8 @257c32 @1c32 @1c32 @1c32 @321c8 @128c16 @128c16 @129c16 @128c16 @257c16 @128c16 @320c8 @129c32 @1c32 @1c32 @1c32 
R9 @641c8 @256c8 @320c8 @128c16 @128c16 @129c16 @128c16 @257c16 @128c16 @320c8 @129c32 @1c32 @1c32 @1c32 
; Measure 14 found at R8
; Measure 15 found at R9
R10 @129c8 @257c32 @1c32 @1c32 @1c32 @321c8 @128c16 @128c16 @131c32 @2c32 @130c32 @2c32 @259c32 @2c32 @130c32 @2c32 @322c32 @2c32 @2c32 @2c32 @131c32 @3c32 @3c32 @3c32 
; Measure 17 found at R5
; Measure 18 found at R6
; Measure 19 found at R7
; Measure 20 found at R8
; Measure 21 found at R9
; Measure 22 found at R8
; Measure 23 found at R9
; Measure 24 found at R8
; Measure 25 found at R5
; Measure 26 found at R6
; Measure 27 found at R7
; Measure 28 found at R8
; Measure 29 found at R9
; Measure 30 found at R8
; Measure 31 found at R9
; Measure 32 found at R10
R11 @641c16 @128c16 @256c16 @128c16 @320c8 @256c16 @128c16 @129c16 @128c16 @257c16 @128c16 @320c16 @128c16 @129c32 @1c32 @129c32 @1c32 
R12 @129c16 @128c16 @256c16 @128c16 @320c16 @128c16 @128c16 @128c16 @129c16 @128c16 @257c16 @128c16 @320c8 @129c32 @1c32 @129c32 @1c32 
R13 @641c16 @128c16 @256c16 @128c16 @320c16 @128c16 @256c16 @128c16 @129c16 @128c16 @257c16 @128c16 @320c16 @128c16 @129c32 @1c32 @129c32 @1c32 
; Measure 36 found at R12
; Measure 37 found at R13
; Measure 38 found at R12
; Measure 39 found at R13
R14 @129c16 @128c16 @256c16 @128c16 @320c16 @128c16 @128c16 @128c16 @131c32 @2c32 @130c32 @2c32 @259c32 @2c32 @130c32 @2c32 @322c32 @2c32 @2c32 @2c32 @131c32 @3c32 @131c32 @3c32 
; Measure 41 found at R13
; Measure 42 found at R12
; Measure 43 found at R13
; Measure 44 found at R12
R15 @641c16 @128c16 @256c16 @128c16 @320c16 @128c16 @768c16 @128c16 @129c16 @128c16 @257c16 @128c16 @832c16 @128c16 @129c32 @1c32 @129c32 @1c32 
R16 @641c16 @128c16 @256c16 @128c16 @320c16 @128c16 @640c16 @128c16 @129c16 @128c16 @257c16 @128c16 @832c8 @129c32 @1c32 @129c32 @1c32 
R17 @641c16 @128c16 @256c16 @128c16 @320c16 @128c16 @768c16 @128c16 @131c32 @2c32 @130c32 @2c32 @259c32 @2c32 @130c32 @2c32 @834c32 @2c32 @130c32 @2c32 @131c32 @3c32 @131c32 @3c32 
R18 @512c4 r4 @1c32 @1c32 @1c32 @1c32 @1c32 @1c32 @1c32 @1c32 @1c32 @1c32 @1c32 @1c32 @1c32 @1c32 @1c32 @1c32 
R19 @513c4 r8 @256c8 @128c4 r4 
R20 @1c4 r4 @1c8 @1c8 r8 @257c32 @1c32 @1c32 @1c32 
R21 @641c8 @1c32 @1c32 @1c32 @1c32 @1c4 @1c8 @1c32 @1c32 @1c32 @1c32 @1c8 @257c32 @1c32 @1c32 @1c32 
R22 @129c8 @1c32 @1c32 @1c32 @1c32 @1c8 @1c8 @1c8 @1c8 r8 @257c32 @1c32 @1c32 @1c32 
R23 @641c8 @1c32 @1c32 @1c32 @1c32 @1c8 @256c8 @129c8 @1c32 @1c32 @1c32 @1c32 @1c8 @257c32 @1c32 @1c32 @1c32 
R24 @129c8 @1c32 @1c32 @1c32 @1c32 @1c8 @257c8 @129c16 @128c16 @257c8 @128c8 @257c32 @1c32 @1c32 @1c32 
R25 @641c8 @1c32 @1c32 @1c32 @1c32 @1c8 @256c8 @129c16 @128c16 @257c8 r8 @257c32 @1c32 @1c32 @1c32 
R26 @129c32 @128c32 @128c32 @128c32 @257c32 @1c32 @1c32 @1c32 @129c16 @128c16 @257c8 @129c16 @128c16 @257c8 @128c8 @257c32 @1c32 @1c32 @1c32 
; Measure 57 found at R5
; Measure 58 found at R6
; Measure 59 found at R7
; Measure 60 found at R8
; Measure 61 found at R9
; Measure 62 found at R8
; Measure 63 found at R9
R27 @129c8 @257c32 @1c32 @1c32 @1c32 @321c8 @128c16 @128c16 @131c32 @3c32 @131c32 @3c32 @259c32 @3c32 @131c32 @3c32 @323c32 @3c32 @3c32 @3c32 @131c32 @3c32 @3c32 @3c32 
R28 r2 
; Measure 66 found at R13
; Measure 67 found at R12
; Measure 68 found at R13
; Measure 69 found at R12
; Measure 70 found at R11
; Measure 71 found at R12
; Measure 72 found at R13
; Measure 73 found at R14
; Measure 74 found at R13
; Measure 75 found at R12
; Measure 76 found at R13
; Measure 77 found at R12
; Measure 78 found at R15
; Measure 79 found at R16
R29 @641c16 @128c16 @256c16 @128c16 @320c16 @128c16 @256c16 @128c16 @129c16 @128c16 @257c16 @128c16 @320c16 @192c16 @193c32 @1c32 @193c32 @1c32 
R30 @129c16 @128c16 @256c16 @128c16 @320c16 @128c16 @256c16 @128c16 @643c32 @2c32 @130c32 @2c32 @259c32 @2c32 @642c32 @2c32 @322c32 @2c32 @130c32 @2c32 @643c32 @3c32 @131c32 @3c32 
; Measure 82 found at R11
; Measure 83 found at R12
; Measure 84 found at R13
; Measure 85 found at R12
; Measure 86 found at R13
; Measure 87 found at R12
; Measure 88 found at R13
; Measure 89 found at R14
; Measure 90 found at R13
; Measure 91 found at R12
; Measure 92 found at R13
; Measure 93 found at R12
; Measure 94 found at R15
; Measure 95 found at R16
; Measure 96 found at R17
R31 @513c4 r4 @1c32 @1c32 @1c32 @1c32 @1c32 @1c32 @1c32 @1c32 @1c32 @1c32 @1c32 @1c32 @1c32 @1c32 @1c32 @1c32 
R32 r8 @1c32 @1c32 @1c32 @1c32 @1c4 
R33 r1 
; Measure 100 found at R33
; Measure 101 found at R21
; Measure 102 found at R22
; Measure 103 found at R23
; Measure 104 found at R24
; Measure 105 found at R25
; Measure 106 found at R26
; Measure 107 found at R5
; Measure 108 found at R6
; Measure 109 found at R7
; Measure 110 found at R8
; Measure 111 found at R9
; Measure 112 found at R8
; Measure 113 found at R9
; Measure 114 found at R10
