R0 @129c4 @128c8 @256c8 @129c8 @128c8 r8 @128c8 
R1 @129c4 @128c8 @256c8 @129c8 @128c8 r8 @128c16 @128c16 
R2 @129c4 @128c8 @256c8 @129c8 r32 @128c32 @128c32 @128c32 @128c8 @256c8 
R3 @129c4 @128c8 @256c8 @129c4 @129c16 @129c16 @129c8 
R4 @129c4 @128c8 @256c8 @129c4 r8 @128c8 
; Measure 6 found at R1
R5 @129c4 @128c8 @256c8 @129c8&16 @128c32 @128c32 @128c8 @256c8 
R6 @129c4 @128c8 @256c8 @131c8 @2c16 @2c16 @3c32 @2c32 @2c16 @2c16 @2c16 
R7 r2 
R8 @513c16&32 @128c32 @258c16 @128c16 @131c16&32 @128c32 @258c16 @128c16 @129c16&32 @128c32 @258c16 @129c16 @131c16&32 @128c32 @258c16 @128c16 
R9 @129c16&32 @128c32 @386c16 @128c32 @1c32 @131c16&32 @128c32 @386c16 @128c32 @1c32 @129c16&32 @128c32 @258c16 @128c16 @131c16 @2c32 @128c32 @258c16 @128c16 
R10 @129c16&32 @128c32 @258c16 @128c16 @131c16&32 @128c32 @258c16 @128c16 @129c16&32 @128c32 @258c16 @128c16 @131c16&32 @128c32 @258c16 @128c16 
R11 @129c16&32 @128c32 @258c16 @128c16 @131c16&32 @128c32 @258c16 @128c16 @129c16&32 @128c32 @258c16 @130c16 @131c16&32 @128c32 @258c16 @130c16 
; Measure 14 found at R8
R12 @129c16&32 @128c32 @386c16 @128c32 @1c32 @131c16&32 @128c32 @386c16 @128c32 @1c32 @129c16&32 @128c32 @258c16 @128c16 @131c16&32 @128c32 @256c16 @130c16 
; Measure 16 found at R10
R13 @129c16&32 @128c32 @258c16 @128c16 @129c16&32 @128c32 @258c16 @130c16 @129c16 @2c32 @128c32 @256c16 @130c16 @153c16 @12c32 @128c32 @278c16 @150c16 
R14 @513c16&32 @128c32 @258c16 @128c16 @129c16&32 @128c32 @258c16 @128c16 @129c16&32 @128c32 @258c16 @129c16 @129c16&32 @128c32 @258c16 @128c16 
R15 @129c16&32 @128c32 @386c16 @128c32 @1c32 @129c16&32 @128c32 @386c16 @128c32 @1c32 @129c16&32 @128c32 @258c16 @128c16 @131c16 @2c32 @128c32 @258c16 @128c16 
R16 @129c16&32 @128c32 @258c16 @128c16 @129c16&32 @128c32 @258c16 @128c16 @129c16&32 @128c32 @258c16 @128c16 @129c16&32 @128c32 @258c16 @128c16 
R17 @129c16&32 @128c32 @258c16 @128c16 @129c16&32 @128c32 @258c16 @128c16 @129c16&32 @128c32 @258c16 @128c16 @131c16&32 @128c32 @256c16 @130c16 
; Measure 22 found at R14
R18 @129c16&32 @128c32 @386c16 @128c32 @1c32 @129c16&32 @128c32 @386c16 @128c32 @1c32 @129c16&32 @128c32 @258c16 @128c16 @129c16&32 @128c32 @258c16 @128c16 
; Measure 24 found at R16
R19 @129c16&32 @128c32 @258c16 @128c16 @129c16&32 @128c32 @258c16 @128c16 @129c16&32 @128c32 @258c16 @128c16 @131c32 @3c32 @3c32 @131c32 @259c32 @3c32 @131c16 
R20 @1c8 @128c8 @1c8 @128c8 @1c8 @128c8 @1c8 @128c16 @128c16 
; Measure 27 found at R20
; Measure 28 found at R20
R21 @129c16 @128c16 @128c8 @129c8&16 @128c16 @129c8&16 @128c16 @129c16 @128c16 @128c16 @128c16 
R22 @1537c8 @129c16 @128c16 @1026c8 @128c16 @130c16 @1025c8 @128c16 @128c16 @1027c16 @2c16 @131c16 @129c16 
R23 @1025c8 @129c16 @128c16 @1026c8 @128c16 @130c16 @1025c8 @128c16 @128c16 @1027c8 @131c16 @129c16 
; Measure 32 found at R22
R24 @1025c8 @129c16 @128c16 @1026c8 @128c16 @130c16 @1025c8 @128c16 @128c16 @1027c16 @2c16 @3c16 @3c16 
R25 @1537c8 @128c16 @128c16 @1093c8 @128c16 @130c16 @1025c8 @194c16 @128c16 @1025c16 @2c16 @197c16 @128c16 
R26 @1025c8 @129c16 @128c16 @1092c8 @128c16 @197c16 @1093c8 @128c16 @128c16 @1093c16 @1c16 @196c16 @195c16 
; Measure 36 found at R25
; Measure 37 found at R26
R27 @1537c8 @130c16 @128c16 @1093c8 @128c16 @128c16 @1027c8 @196c16 @128c16 @1025c8 @197c16 @128c16 
R28 @1027c8 @128c16 @128c16 @1093c8 @130c16 @128c16 @1093c16 @66c16 @196c16 @128c16 @1093c8 @196c16 @130c16 
; Measure 40 found at R27
; Measure 41 found at R28
; Measure 42 found at R27
; Measure 43 found at R28
; Measure 44 found at R27
; Measure 45 found at R28
; Measure 46 found at R27
; Measure 47 found at R28
; Measure 48 found at R27
R29 @1621c16 @18c16 @138c16 @204c16 @1101c16 @10c16 @200c16 @134c16 @1109c16 @84c16 @200c16 @134c16 @1093c16 @2c16 @196c16 @130c16 
R30 @769c16 @257c16 @386c8 @257c16 @257c16 @386c8 @257c16 @257c16 @386c8 @257c16 @257c16 @386c16 @1c16 
R31 @257c16 @257c16 @386c8 @257c16 @257c16 @386c8 @257c16 @257c16 @386c8 @257c16 @257c16 @386c16 @1c16 
; Measure 52 found at R31
; Measure 53 found at R31
; Measure 54 found at R30
; Measure 55 found at R31
; Measure 56 found at R31
; Measure 57 found at R31
; Measure 58 found at R31
; Measure 59 found at R31
R32 @257c16 @257c16 @386c8 @259c16 @257c16 @386c8 @257c16 @257c16 @386c8 @259c16 @257c16 @386c16 @1c16 
R33 @257c16 @257c16 @386c8 @259c16 @257c16 @386c8 @259c16 @257c16 @386c8 @259c16 @257c16 @386c16 @3c16 
R34 @769c16 @257c16 @386c8 @259c16 @257c16 @386c8 @257c16 @259c16 @386c8 @259c16 @257c16 @386c8 
R35 @257c16 @257c16 @386c8 @259c16 @257c16 @386c8 @257c16 @259c16 @386c8 @259c16 @257c16 @386c8 
; Measure 64 found at R35
R36 @257c16 @257c16 @386c8 @259c16 @257c16 @386c8 @259c16 @259c16 @386c8 @259c16 @257c16 @386c16 @2c16 
R37 @769c16 @257c16 @386c8 @259c16 @257c16 @386c8 @257c16 @257c16 @386c8 @259c16 @257c16 @386c8 
R38 @257c16 @257c16 @386c8 @259c16 @257c16 @386c8 @257c16 @257c16 @386c8 @259c16 @257c16 @386c16 @2c16 
R39 @257c16 @257c16 @386c8 @259c16 @257c16 @386c16 @2c16 @257c16 @259c16 @386c8 @259c16 @257c16 @386c16 @2c16 
R40 @257c16 @257c16 @386c8 @259c16 @257c16 @386c8 @257c16 @257c16 @386c8 @259c16 @257c16 @384c16 @2c16 
; Measure 70 found at R37
; Measure 71 found at R38
R41 @257c16 @257c16 @386c8 @257c16 @257c16 @386c8 @257c16 @257c16 @386c8 @259c16 @257c16 @386c8 
R42 @257c16 @257c16 @386c16 @2c16 @257c16 @257c16 @386c8 @257c16 @257c16 @386c8 @259c16 @257c16 @386c16 @2c16 
; Measure 74 found at R37
R43 @257c16 @257c16 @386c8 @259c16 @257c16 @386c8 @257c16 @257c16 @386c8 @259c16 @257c16 @386c8 
R44 @257c16 @259c16 @384c16 @2c16 @257c16 @257c16 @386c16 @2c16 @257c16 @257c16 @386c8 @259c16 @257c16 @386c16 @2c16 
; Measure 77 found at R38
; Measure 78 found at R37
; Measure 79 found at R43
R45 @257c16 @257c16 @386c8 @259c16 @257c16 @386c8 @257c16 @257c16 @386c8 @259c16 @259c16 @386c8 
R46 @771c16 @259c16 @384c8 @259c16 @257c16 @386c16 @2c16 @785c16 @281c16 @394c16 @14c16 @279c16 @279c16 @390c16 @2c16 
R47 @770c8 @385c8 @258c8 @385c16 @2c16 @258c8 @385c8 @258c8 @385c16 @2c16 
R48 @258c8 @385c8 @258c8 @385c16 @2c16 @258c8 @385c8 @258c8 @385c8 
R49 @258c8 @385c8 @258c8 @385c16 @2c16 @258c8 @385c16 @1c16 @258c8 @385c16 @2c16 
R50 @258c8 @385c8 @258c8 @385c16 @2c16 @258c8 @385c16 @1c16 @258c16 @1c16 @385c8 
; Measure 86 found at R47
; Measure 87 found at R50
R51 @258c8 @385c8 @258c8 @385c16 @2c16 @258c8 @385c8 @258c8 @385c16 @2c16 
R52 @258c8 @385c8 @258c8 @385c16 @2c16 @258c8 @385c16 @1c16 @274c16 @26c16 @411c16 @22c16 
R53 @774c8 @385c8 @258c8 @385c16 @2c16 @258c8 @385c8 @258c8 @385c16 @2c16 
; Measure 91 found at R50
; Measure 92 found at R51
R54 @258c8 @385c8 @258c8 @385c16 @2c16 @258c8 @385c16 @1c16 @258c8 @385c16 @1c16 
; Measure 94 found at R47
R55 @258c8 @385c8 @258c8 @385c16 @2c16 @258c8 @385c16 @1c16 @258c8 @385c16 @3c16 
; Measure 96 found at R51
R56 @258c8 @385c8 @258c8 @385c16 @2c16 @258c8 @385c16 @1c16 @274c16 @25c16 @397c16 @7c16 
R57 @4c4 r4 r4 
R58 r2&4 
; Measure 100 found at R58
; Measure 101 found at R58
R59 @512c4 r4 r4 
; Measure 103 found at R58
; Measure 104 found at R58
R60 r4 r4 r8 @384c8 
R61 @1665c8 @256c8 @1153c8 @256c8 @1153c8 @256c8 
R62 @1153c8 @256c8 @1153c8 @256c8 @1153c8 @256c8 
; Measure 108 found at R62
; Measure 109 found at R62
; Measure 110 found at R61
; Measure 111 found at R62
; Measure 112 found at R62
R63 @1153c8 @256c8 @1153c8 @256c8 @131c8 @131c16 @131c16 @131c32 @131c32 @131c32 @131c32 @131c32 @131c32 @131c32 @131c32 
R64 @769c8 @128c16 @128c16 @259c8 @129c16 @130c16 @257c8 @128c16 @128c16 @259c8 @129c16 @130c16 
R65 @257c8 @128c16 @128c16 @259c8 @129c16 @130c16 @257c8 @128c16 @129c16 @259c8 @131c16 @129c16 
R66 @257c8 @128c16 @128c16 @259c8 @129c16 @130c16 @257c8 @128c16 @128c16 @259c8 @129c16 @130c16 
R67 @257c8 @128c16 @128c16 @259c8 @129c16 @130c16 @257c8 @128c16 @129c16 @259c8 @131c16 @131c16 
R68 @769c8 @128c16 @128c16 @259c8 @129c16 @130c16 @257c8 @128c16 @128c16 @259c8 @129c16 @128c16 
R69 @257c8 @128c16 @128c16 @259c8 @129c16 @130c16 @257c8 @128c16 @129c16 @259c8 @129c16 @129c16 
R70 @256c8 @130c16 @130c16 @256c8 @131c16 @131c16 @256c8 @130c16 @130c16 @259c16 @3c16 @130c16 @130c16 
R71 @768c8 @128c16 @128c16 @259c8 @128c16 @128c16 @259c16 @2c16 @128c16 @128c16 @259c16 @3c16 @3c16 @3c16 
R72 @1c8 @128c8 @195c8 @128c8 @1c8 @194c8 @1c8 @194c8 
R73 @1c8 @128c8 @195c8 @128c8 @1c16 @194c16 @194c16 @128c16 @195c8 @128c8 
R74 @1c8 @128c8 @195c8 @128c8 @1c16 @194c16 @194c8 @1c8 @194c16 @194c16 
R75 @195c8 @128c8 @195c8 @128c8 @67c8 @194c16 @128c16 @195c8 @194c16 @194c16 
R76 @897c8 @129c8 @452c8 @128c16 @130c16 @384c8 @195c16 @67c16 @452c16 @130c16 @194c8 
R77 @385c8 @129c8 @452c8 @128c16 @196c16 @384c8 @129c16 @1c16 @452c8 @194c16 @131c16 
R78 @385c8 @129c8 @452c8 @128c16 @130c16 @384c8 @195c16 @67c16 @452c8 @130c16 @67c16 
R79 @385c8 @129c16 @1c16 @452c8 @128c16 @196c16 @385c8 @129c16 @1c16 @452c16 @68c16 @196c16 @68c16 
R80 @1793c16 @256c16 @256c16 @128c16 @1476c16 @256c16 @257c16 @128c16 @1282c16 @256c16 @452c16 @194c16 @1281c16 @256c16 @452c16 @128c16 
R81 @1280c16 @256c16 @259c16 @128c16 @1476c16 @256c16 @256c16 @194c16 @1477c16 @256c16 @258c16 @128c16 @1477c16 @256c16 @452c16 @130c16 
R82 @1793c16 @256c16 @258c16 @128c16 @1476c16 @256c16 @257c16 @128c16 @1282c16 @256c16 @452c16 @194c16 @1281c16 @256c16 @452c16 @128c16 
R83 @1282c16 @256c16 @257c16 @130c16 @1476c16 @256c16 @258c16 @194c16 @1283c16 @258c16 @258c16 @128c16 @1477c16 @450c16 @452c16 @196c16 
R84 @1793c16 @256c16 @258c16 @128c16 @1476c16 @256c16 @257c16 @194c16 @1476c16 @256c16 @258c16 @128c16 @1475c16 @256c16 @452c16 @128c16 
R85 @1282c16 @256c16 @257c16 @128c16 @1476c16 @256c16 @258c16 @194c16 @1477c16 @256c16 @258c16 @128c16 @1477c16 @256c16 @452c16 @130c16 
R86 @1793c16 @256c16 @324c16 @128c16 @1348c16 @256c16 @257c16 @128c16 @1348c16 @256c16 @324c16 @128c16 @1281c16 @256c16 @324c16 @196c16 
R87 @1794c16 @256c16 @323c16 @130c16 @1348c16 @256c16 @258c16 @128c16 @1347c16 @256c16 @325c16 @130c16 @1795c16 @771c32 @3c32 @1795c32 @3c32 @3c32 @3c32 
R88 r1 
; Measure 139 found at R88
R89 @513c4 r4 r2 
R90 r2 r4 r8 @128c16 @128c16 
R91 @513c4 r4 @128c4 r8 @128c16 @128c16 
; Measure 143 found at R91
R92 @513c4 r4 @513c4 r4 
R93 @513c8 @2c16 @2c16 @513c8 @2c16 @2c16 @513c8 @2c16 @2c16 @3c16 @3c16 @3c16 @3c16 
R94 @1153c16 @128c16 @129c16 @256c16 @1154c16 @128c16 @128c16 @258c16 @1154c16 @128c16 @129c16 @257c16 @1154c16 @128c16 @130c16 @256c16 
R95 @1153c16 @128c16 @129c16 @256c16 @1154c16 @128c16 @128c16 @258c16 @1154c16 @128c16 @129c16 @257c16 @1154c16 @128c16 @128c16 @256c16 
; Measure 148 found at R94
; Measure 149 found at R94
R96 @1665c16 @128c16 @129c16 @256c16 @1154c16 @128c16 @128c16 @258c16 @1154c16 @128c16 @129c16 @257c16 @1154c16 @130c16 @130c16 @256c16 
R97 @1153c16 @128c16 @129c16 @256c16 @1154c16 @128c16 @128c16 @258c16 @1154c16 @128c16 @129c16 @257c16 @1154c16 @128c16 @128c16 @258c16 
R98 @1153c16 @128c16 @129c16 @256c16 @1154c16 @128c16 @128c16 @258c16 @1152c16 @128c16 @129c16 @257c16 @1154c16 @128c16 @130c16 @256c16 
R99 @1153c16 @128c16 @258c8 @1155c16 @128c16 @256c16 @2c16 @1155c16 @128c16 @258c16 @2c16 @1155c16 @130c16 @258c16 @2c16 
R100 @769c16 @257c16 @1282c8 @257c16 @257c16 @1282c8 @257c16 @257c16 @1282c8 @259c16 @257c16 @1282c8 
R101 @257c16 @257c16 @1282c8 @259c16 @257c16 @1282c8 @257c16 @257c16 @1282c8 @259c16 @257c16 @1282c16 @2c16 
R102 @257c16 @257c16 @1282c8 @259c16 @257c16 @1282c8 @257c16 @257c16 @1282c8 @259c16 @257c16 @1282c8 
R103 @257c16 @257c16 @1282c8 @259c16 @257c16 @1282c8 @385c16 @257c16 @1410c8 @387c16 @257c16 @1410c16 @2c16 
; Measure 158 found at R102
; Measure 159 found at R101
R104 @257c16 @257c16 @1282c8 @257c16 @257c16 @1282c8 @257c16 @257c16 @1282c8 @259c16 @257c16 @1282c8 
R105 @257c16 @257c16 @1282c16 @2c16 @257c16 @257c16 @1282c8 @257c16 @257c16 @1282c8 @259c16 @257c16 @1282c16 @2c16 
; Measure 162 found at R100
; Measure 163 found at R101
; Measure 164 found at R102
; Measure 165 found at R103
; Measure 166 found at R102
; Measure 167 found at R101
; Measure 168 found at R104
R106 @257c16 @385c16 @1282c16 @128c16 @259c16 @385c16 @1282c16 @128c16 @257c16 @385c16 @1282c16 @128c16 @259c32 @2c32 @387c32 @2c32 @1282c32 @2c32 @131c32 @2c32 
R107 @512c4 r4 r2 
; Measure 171 found at R88
; Measure 172 found at R88
; Measure 173 found at R88
; Measure 174 found at R88
; Measure 175 found at R88
; Measure 176 found at R88
; Measure 177 found at R88
; Measure 178 found at R88
; Measure 179 found at R88
; Measure 180 found at R88
; Measure 181 found at R88
; Measure 182 found at R88
; Measure 183 found at R88
; Measure 184 found at R88
; Measure 185 found at R88
; Measure 186 found at R0
; Measure 187 found at R1
; Measure 188 found at R2
; Measure 189 found at R3
; Measure 190 found at R4
; Measure 191 found at R1
; Measure 192 found at R5
; Measure 193 found at R6
; Measure 194 found at R88
