R0 @513c4 r4 @256c8&16 @256c16 r8 @256c8 
R1 @128c4 r8 @128c8 @128c4 r4 
R2 @128c4 r8 @128c16 @128c16 @128c4 @128c8 @128c8 
R3 @128c4 r4 @129c16 @1c16 @1c16 @1c16 @129c4 
; Measure 5 found at R0
; Measure 6 found at R1
R4 @128c8 @128c8 @128c8 @128c16 @128c16 @128c8 @128c8 @192c16 @64c16 @192c32 @64c32 @192c32 @64c32 
R5 @513c4 r4 @1c16 @1c16 @3c16 @1c16 @1c16 @1c16 @3c16 @1c16 
R6 @833c16 @65c16 @195c8 @256c8 @195c16 @65c16 @193c8 @258c16 @128c16 @321c16 @65c16 @195c8 
R7 @193c16 @65c16 @323c8 r8 @195c16 @193c16 @321c8 @2c8 @193c16 @65c16 @67c8 
R8 @193c16 @65c16 @323c8 r8 @67c16 @65c16 @65c8 @258c16 @128c16 @321c16 @65c16 @195c8 
R9 @193c16 @65c16 @323c8 @128c16 @128c16 @195c16 @65c16 @321c8 @130c16 @128c16 @321c16 @65c16 @195c16 @1c16 
R10 @833c16 @65c16 @195c8 @256c8 @195c16 @193c16 @65c8 @130c8 @321c16 @65c16 @195c8 
R11 @193c16 @193c16 @323c8 @128c16 @128c16 @195c16 @193c16 @321c8 @2c8 @321c16 @65c16 @195c16 @1c16 
R12 @131c16 @128c16 @129c16 @128c16 @259c8 @129c16 @128c16 @131c16 @128c16 @129c16 @128c16 @259c8 @131c16 @129c16 
R13 @515c4 r8 @523c32 @11c32 @7c32 @19c32 @17c16 @17c16 @11c32 @7c32 @19c32 @7c32 @515c8 @3c16 @1c16 
R14 @641c4 @128c32 @128c32 @128c8&16 @1c4 r4 
R15 @129c32 @128c32 @128c8&16 @128c4 @131c8&16 @129c32 @129c32 @129c8 @1c16 @1c16 
R16 @131c4 @1c8 @128c8 @1c8 @128c8 @1c8 @129c32 @128c32 @129c32 @128c32 
R17 @193c12 @64c96 @128c32 @1c32 @1c96 @64c48 @129c32 @1c32 @193c12 @64c96 @128c32 @1c24 @64c48 @129c16 @321c8 @1c32 @1c32 @1c32 @1c32 @129c32 @128c32 @128c16 @129c16 @129c16 
R18 @513c4 @1c8 @128c8 @129c4 @129c8 @320c8 
R19 @129c32 @129c32 @129c8&16 @129c8 @129c16 @1c32 @1c32 @131c8 @129c32 @1c32 @1c32 @1c32 @129c32 @128c32 @128c16 @129c16 @129c16 
R20 @515c4 @257c8&16 @129c16 @129c4 @1c8 r32 @64c32 @64c32 @64c32 
R21 @705c16 @128c16 @129c32 @1c32 @129c32 @1c32 @257c8 @129c16 @128c16 
R22 @129c16 @128c16 @193c32 @65c32 @193c32 @65c32 @321c16 @65c16 @193c16 @193c16 @577c4 r8 @2c32 @2c32 @2c32 @2c32 
R23 @641c16 @128c16 @131c16 @129c16 @320c8 @131c16 @129c16 @128c16 @128c16 @131c16 @129c16 @320c8 @131c16 @129c16 
R24 @129c16 @128c16 @259c16 @1c16 @320c16 @129c16 @258c16 @129c16 @129c8 @259c32 @1c32 @129c32 @1c32 @321c16 @128c16 @259c16 @1c16 
R25 @129c16 @128c16 @131c16 @129c16 @320c8 @131c16 @129c16 @128c16 @128c16 @131c16 @129c16 @320c8 @131c16 @129c16 
R26 @129c16 @128c16 @259c32 @1c32 @1c32 @1c32 @193c16 @128c16 @259c16 @129c16 @129c8 @259c32 @1c32 @1c32 @1c32 @193c16 @128c16 @259c16 @1c16 
; Measure 30 found at R23
; Measure 31 found at R24
; Measure 32 found at R25
; Measure 33 found at R24
; Measure 34 found at R23
; Measure 35 found at R24
; Measure 36 found at R25
; Measure 37 found at R26
; Measure 38 found at R23
; Measure 39 found at R24
; Measure 40 found at R25
; Measure 41 found at R24
R27 @513c4 @322c8 @129c16 @128c16 @1c16 @1c16 @1c16 @1c16 @1c16 @1c16 @1c32 @64c32 @65c32 @65c32 
R28 @129c16 @129c16 @128c16 @128c16 @256c8 @131c16 @129c16 @129c16 @131c16 @193c32 @64c32 @193c32 @64c32 @323c16 @67c16 @195c16 @195c16 
R29 @643c16 @131c16 @192c16 @128c16 @257c16 @1c16 @192c16 @129c16 @129c16 @129c16 @320c16 @128c16 @259c16 @1c16 @192c16 @129c16 
R30 @131c16 @131c16 @192c16 @128c16 @257c16 @1c16 @192c16 @129c16 @257c16 @129c16 @192c16 @128c16 @259c16 @129c16 @194c16 @129c16 
R31 @131c16 @131c16 @192c16 @128c16 @257c16 @1c16 @192c16 @129c16 @129c16 @129c16 @320c16 @128c16 @259c16 @1c16 @192c16 @129c16 
; Measure 47 found at R30
; Measure 48 found at R29
; Measure 49 found at R30
R32 @131c16 @129c16 @192c16 @128c16 @259c16 @1c16 @192c16 @129c16 @195c16 @128c16 @195c16 @128c16 @323c8 @195c16 @128c16 
R33 @515c4 r8 @523c32 @11c32 @7c32 @19c32 @19c16 @19c16 @3c16 @3c32 @3c32 @523c32 @4c32 @19c32 @4c32 @3c32 @3c32 @3c32 @3c32 
; Measure 52 found at R29
; Measure 53 found at R30
; Measure 54 found at R31
; Measure 55 found at R30
; Measure 56 found at R29
; Measure 57 found at R30
R34 @131c16 @129c16 @192c16 @128c16 @259c16 @1c16 @192c16 @129c16 @195c16 @129c16 @195c16 @128c16 @323c8 @195c16 @128c16 
; Measure 59 found at R33
; Measure 60 found at R23
; Measure 61 found at R24
; Measure 62 found at R25
; Measure 63 found at R26
; Measure 64 found at R23
; Measure 65 found at R24
; Measure 66 found at R25
; Measure 67 found at R24
; Measure 68 found at R23
; Measure 69 found at R24
; Measure 70 found at R25
; Measure 71 found at R26
; Measure 72 found at R23
; Measure 73 found at R24
; Measure 74 found at R25
; Measure 75 found at R24
R35 @513c4 @322c8 @129c16 @128c16 @129c16 @129c16 @129c16 @129c16 @129c16 @129c16 @129c32 @64c32 @193c32 @65c32 
R36 @705c16 @128c16 @128c8 r4 r8 @129c16 @129c32 @129c32 @129c16 @129c16 @129c16 @129c16 
