R0 r2 r4 @64c16 @64c16 @64c16 @64c32 @64c32 
R1 @515c8 r8 @2c16 @2c16 @2c8 @75c16 @4c16 @16c16 @75c16 @4c16 @16c16 @69c16 r16 
R2 @515c8 r8 @2c16 @2c16 @2c8 @75c16 @4c16 @18c16 @75c16 @132c16 @144c16 @263c16 @128c16 
R3 @643c16 @128c16 @258c16 @128c16 @128c16 @128c16 @258c16 @128c16 @201c16 @134c16 @272c16 @203c16 @132c16 @144c16 @325c16 @128c16 
R4 @643c16 @128c16 @258c16 @128c16 @128c16 @130c16 @320c16 @128c16 @139c16 @132c16 @336c16 @139c16 @134c16 @144c16 @327c16 @194c16 
R5 @643c16 @128c16 @320c16 @128c16 @129c16 @129c16 @320c16 @128c16 @129c16 @128c16 @320c16 @128c16 @131c16 @130c16 @322c16 @130c16 
R6 @643c16 @128c16 @320c16 @128c16 @129c16 @129c16 @320c16 @128c16 @129c16 @128c16 @320c16 @130c16 @131c16 @128c16 @322c16 @194c16 
R7 @643c16 @128c16 @320c16 @128c16 @129c16 @129c16 @320c16 @128c16 @129c16 @128c16 @320c16 @640c16 @643c16 @130c16 @322c16 @130c16 
R8 @643c16 @128c16 @320c16 @128c16 @129c16 @129c16 @320c16 @128c16 @129c16 @128c16 @320c16 @130c16 @131c16 @128c16 @322c16 @130c16 
R9 @579c8 r8 r4 r4 @64c32 @64c32 @64c32 @64c32 @64c32 @64c32 @64c32 @64c32 
R10 @257c8 r8 @257c8 r16 @64c16 @835c8 r8 r4 
R11 r4 @2c16 @2c16 @2c32 @2c32 @2c32 @2c32 @576c4 @576c8 @256c8 
R12 @129c16 @128c16 @256c16 @128c16 @131c16 @128c16 @256c16 @128c16 @129c16 @128c16 @256c16 @128c16 @131c16 @128c16 @257c16 @129c16 
R13 @129c16 @128c16 @256c16 @128c16 @131c16 @128c16 @320c16 @128c16 @129c16 @128c16 @320c16 @128c16 @131c16 @128c16 @257c16 @129c16 
R14 @129c16 @128c16 @256c16 @128c16 @131c16 @128c16 @256c16 @128c16 @129c16 @128c16 @258c32 @2c32 @130c32 @2c32 @131c16 @128c16 @259c16 @129c16 
R15 @129c16 @128c16 @320c16 @128c16 @131c16 @128c16 @256c16 @128c16 @129c16 @128c16 @320c16 @192c16 @131c16 @128c16 @321c16 @193c16 
; Measure 17 found at R12
; Measure 18 found at R13
; Measure 19 found at R14
R16 @129c16 @128c16 @320c16 @128c16 @131c16 @130c16 @258c16 @130c16 @131c16 @130c16 @322c16 @194c16 @131c32 @2c32 @130c16 @323c16 @193c16 
R17 @641c16 @128c16 @324c16 @128c16 @129c16 @129c16 @325c16 @129c16 @129c16 @128c16 @324c16 @128c16 @129c16 @129c16 @325c16 @128c16 
R18 @129c16 @128c16 @324c16 @128c16 @129c16 @129c16 @325c16 @129c16 @129c16 @128c16 @324c16 @192c16 @129c16 @129c16 @325c16 @128c16 
R19 @705c16 @128c16 @324c16 @128c16 @129c16 @129c16 @325c16 @129c16 @705c16 @128c16 @324c16 @128c16 @129c16 @129c16 @837c16 @128c16 
R20 @641c16 @128c16 @324c16 @128c16 @129c16 @129c16 @325c16 @129c16 @129c16 @128c16 @324c16 @192c16 @129c16 @129c16 @325c16 @128c16 
; Measure 25 found at R17
; Measure 26 found at R18
R21 @521c16 @8c16 @10c16 @2c16 @11c16 @11c16 @11c16 @3c16 @519c16 @4c16 @84c16 @16c16 @7c16 @7c16 @513c16 r16 
R22 @513c8 r8 @1c8 r8 @1c8 @64c8 @65c16 @64c16 @323c16 @195c16 
R23 @641c16 @128c16 @256c16 @128c16 @197c16 @128c16 @256c16 @128c16 @129c16 @128c16 @256c16 @128c16 @197c16 @128c16 @256c16 @128c16 
R24 @129c16 @128c16 @256c16 @128c16 @197c16 @128c16 @256c16 @128c16 @129c16 @128c16 @256c16 @128c16 @197c16 @128c16 @256c16 @128c16 
; Measure 31 found at R24
; Measure 32 found at R24
; Measure 33 found at R23
R25 @129c16 @128c16 @256c16 @128c16 @197c16 @128c16 @256c16 @128c16 @129c16 @128c16 @256c16 @128c16 @197c16 @128c16 @320c16 @129c16 
R26 @643c8 @2c16 @2c16 @131c16 @131c16 @259c16 @131c16 @709c16 @128c16 @322c16 @128c16 @129c16 @129c16 @837c16 @128c16 
R27 @707c16 @128c16 @324c16 @128c16 @129c16 @129c16 @324c16 @128c16 @129c16 @128c16 @324c16 @192c16 @129c16 @129c16 @324c16 @128c16 
R28 @643c16 @128c16 @256c16 @128c16 @129c16 @129c16 @256c16 @128c16 @129c16 @128c16 @256c16 @128c16 @643c16 @642c16 @770c16 @642c16 
R29 @643c16 @128c16 @256c16 @128c16 @129c16 @129c16 @256c16 @128c16 @131c16 @128c16 @256c16 @128c16 @641c16 @706c16 @834c16 @706c16 
; Measure 39 found at R28
; Measure 40 found at R29
; Measure 41 found at R28
R30 @643c16 @128c16 @256c16 @128c16 @129c16 @129c16 @256c16 @130c16 @707c32 @66c32 @192c32 @64c32 @320c16 @192c16 @131c32 @3c32 @131c32 @3c32 @259c16 @131c16 
R31 @643c16 @128c16 @256c16 @128c16 @128c16 @128c16 @256c16 @128c16 @129c16 @128c16 @256c16 @128c16 @643c16 @640c16 @768c16 @640c16 
R32 @643c16 @128c16 @256c16 @128c16 @129c16 @129c16 @256c16 @128c16 @131c16 @128c16 @256c16 @128c16 @641c16 @704c16 @832c16 @704c16 
R33 @643c16 @128c16 @256c16 @128c16 @193c16 @128c16 @257c16 @128c16 @131c16 @128c16 @257c16 @128c16 @705c16 @640c16 @769c16 @640c16 
R34 @643c16 @128c16 @256c16 @128c16 @193c16 @129c16 @256c16 @128c16 @131c16 @128c16 @256c16 @128c16 @641c16 @706c16 @834c16 @706c16 
R35 @643c16 @128c16 @256c16 @128c16 @193c16 @128c16 @256c16 @128c16 @131c16 @128c16 @256c16 @128c16 @193c16 @128c16 @256c16 @128c16 
R36 @203c16 @203c16 @331c16 @128c16 @203c32 @66c32 @203c16 @331c16 @194c16 @135c16 @134c16 @274c16 @146c16 @133c16 @198c16 @322c16 @194c16 
R37 @578c4 r4 r2 
R38 r1 
R39 @257c4 r4 @257c4 r4 
R40 @257c4 r4 r2 
R41 @1c4 r4 @1c4 r4 
R42 @1c4 r4 @1c8 r8 @1c8 r8 
; Measure 55 found at R39
R43 @257c4 r4 r4 @64c4 
R44 @513c4 @66c4 @1c4 @66c4 
R45 @1c4 @66c4 @1c4 @66c4 
R46 @257c4 @66c4 @257c4 @66c4 
R47 @257c4 @66c4 @1c4 @66c4 
R48 @1c4 @66c4 @1c8 r8 @67c8 r8 
R49 @1c8 r8 @67c8 r8 @1c8 r8 @67c8 r8 
R50 @261c8 @66c8 @1c8 @66c8 @265c16 @8c16 @74c16 @8c16 @9c16 @8c16 @76c16 @8c16 
R51 @261c16 @6c16 @72c16 @4c16 @19c16 @18c16 @84c16 @16c16 @75c16 @8c16 @70c16 @6c16 @83c16 @16c16 @70c16 @70c16 
R52 @641c16 @128c16 @324c16 @128c16 @129c16 @129c16 @324c16 @128c16 @129c16 @128c16 @324c16 @128c16 @129c16 @129c16 @324c16 @129c16 
R53 @129c16 @128c16 @324c16 @128c16 @129c16 @129c16 @324c16 @128c16 @129c16 @128c16 @324c16 @192c16 @129c16 @129c16 @324c16 @129c16 
R54 @641c16 @128c16 @324c16 @128c16 @129c16 @129c16 @324c16 @128c16 @641c16 @128c16 @324c16 @128c16 @129c16 @129c16 @324c16 @129c16 
R55 @641c16 @128c16 @324c16 @128c16 @129c16 @129c16 @324c16 @128c16 @129c16 @128c16 @324c16 @192c16 @129c16 @193c16 @388c16 @193c16 
; Measure 69 found at R52
; Measure 70 found at R53
R56 @641c16 @128c16 @324c16 @128c16 @129c16 @129c16 @836c16 @128c16 @641c16 @128c16 @324c16 @128c16 @641c16 @129c16 @324c16 @129c16 
R57 @641c16 @128c16 @324c16 @128c16 @129c16 @129c16 @324c16 @128c16 @129c16 @128c16 @324c16 @192c16 @131c16 @195c16 @388c16 @195c16 
; Measure 73 found at R52
; Measure 74 found at R53
; Measure 75 found at R56
; Measure 76 found at R55
; Measure 77 found at R52
R58 @641c16 @128c16 @324c16 @128c16 @129c16 @129c16 @324c16 @128c16 @129c16 @128c16 @324c16 @192c16 @129c16 @129c16 @324c16 @129c16 
; Measure 79 found at R52
R59 @129c16 @128c16 @340c32 @16c32 @144c32 @16c32 @145c32 @16c32 @139c32 @10c32 @332c32 @8c32 @136c32 @8c32 @197c32 @4c32 @134c32 @4c32 @340c32 @16c32 @144c32 @18c32 @211c32 @18c32 @135c32 @4c32 @392c32 @4c32 @199c32 @6c32 
; Measure 81 found at R38
; Measure 82 found at R38
