R0 r2 @177c32 @161c32 @161c16 @161c16 @161c32 @161c32 @161c32 @161c32 @161c16 @289c16 @161c16 
R1 @529c8 @1c32 @1c32 @1c32 @1c32 @1c8 @2c8 @1c8 @1c16 @1c16 @2c8 @1c32 @1c32 @1c32 @1c32 
R2 @17c4 @2c8 @1c16 @1c16 @1c4 @2c8 @1c32 @1c32 @1c32 @1c32 
; Measure 4 found at R1
R3 @17c4 @2c8 @1c16 @1c16 @3c8 @2c8 @2c8 @3c32 @1c32 @1c32 @1c32 
R4 @513c8 @3c32 @1c32 @1c32 @1c32 @1c16 @1c16 @2c16 @1c16 @1c8 @3c8 @3c8 @3c32 @1c32 @1c32 @1c32 
; Measure 7 found at R4
; Measure 8 found at R4
R5 @513c8 @3c32 @1c32 @1c32 @1c32 @1c16 @1c16 @2c16 @3c16 @3c32 @2c32 @2c32 @2c32 @3c32 @2c32 @2c32 @2c32 @3c16 @2c16 @3c32 @3c32 @3c32 @3c32 
R6 @769c8 @130c16 @128c16 @257c16 @1c16 @130c16 @128c16 @257c16 @1c16 @130c32 @128c32 @128c32 @128c32 @257c8 @130c16 @129c32 @1c32 
R7 @257c8 @130c16 @128c16 @257c16 @1c16 @130c16 @128c16 @257c16 @1c16 @130c32 @128c32 @128c32 @128c32 @257c8 @130c16 @129c32 @1c32 
; Measure 12 found at R6
R8 @257c8 @130c16 @128c16 @257c16 @1c16 @130c16 @128c16 @257c16 @1c16 @130c32 @128c32 @128c32 @128c32 @257c8 @130c16 @131c32 @1c32 
; Measure 14 found at R6
; Measure 15 found at R7
; Measure 16 found at R6
; Measure 17 found at R8
; Measure 18 found at R6
; Measure 19 found at R7
; Measure 20 found at R6
; Measure 21 found at R8
; Measure 22 found at R6
; Measure 23 found at R7
; Measure 24 found at R6
; Measure 25 found at R8
R9 @513c4 r4 r2 
R10 r4 @256c4 @257c16 @1c16 @130c32 @128c32 @128c32 @128c32 @257c8 @130c16 @129c32 @1c32 
R11 @513c4 r4 r4 r8 @2c16 @1c32 @1c32 
R12 @256c4 @1c16 @1c8&16 @1c16 @1c8&16 @3c32 @3c32 @3c32 @3c32 @3c32 @3c32 @3c32 @3c32 
; Measure 30 found at R6
; Measure 31 found at R7
; Measure 32 found at R6
R13 @257c8 @130c16 @128c16 @257c16 @1c16 @130c16 @128c16 @257c32 @1c32 @1c32 @1c32 @130c32 @130c32 @130c32 @130c32 @259c32 @3c32 @3c32 @3c32 @131c32 @3c32 @131c32 @3c32 
; Measure 34 found at R6
; Measure 35 found at R7
; Measure 36 found at R6
; Measure 37 found at R8
; Measure 38 found at R6
; Measure 39 found at R7
; Measure 40 found at R6
; Measure 41 found at R8
R14 @513c8 @1c32 @1c32 @1c32 @1c32 @1c8 @2c8 @1c8 @1c16 @1c16 @2c8 @1c32 @1c32 @1c32 @1c32 
R15 @1c4 @2c8 @1c16 @1c16 @1c4 @2c8 @1c32 @1c32 @1c32 @1c32 
; Measure 44 found at R14
R16 @1c4 @2c8 @1c16 @1c16 @3c8 @2c8 @2c8 @3c32 @1c32 @1c32 @1c32 
; Measure 46 found at R4
; Measure 47 found at R4
; Measure 48 found at R4
; Measure 49 found at R5
; Measure 50 found at R6
; Measure 51 found at R7
