R0 @657c8 @128c8 @243c8 @128c8 @145c8 @128c8 @243c8 @640c8 
R1 @145c8 @128c8 @243c8 @128c8 @145c8 @128c8 @371c4 
; Measure 3 found at R0
; Measure 4 found at R1
; Measure 5 found at R0
; Measure 6 found at R1
; Measure 7 found at R0
R2 @145c8 @128c8 @243c8 @145c8 @627c16 @64c16 @21c16 @4c16 @627c16 @64c16 @17c16 @16c16 
R3 @657c8 @128c8 @243c8 @128c8 @145c8 @128c8 @243c8 @128c8 
R4 @145c8 @128c8 @243c8 @128c8 @177c32 r96 @32c48 @64c48 @32c96 r32 @129c8 @243c8 @129c8 
R5 @145c8 @128c8 @243c8 @128c8 @145c8 @128c8 @243c8 @128c8 
; Measure 12 found at R4
; Measure 13 found at R5
; Measure 14 found at R4
; Measure 15 found at R5
R6 @145c8 @128c8 @243c8 @226c16 @192c16 @627c16 @96c16 @96c16 @96c16 @627c16 @96c16 @96c16 @96c16 
; Measure 17 found at R3
; Measure 18 found at R4
; Measure 19 found at R5
; Measure 20 found at R4
; Measure 21 found at R5
; Measure 22 found at R4
; Measure 23 found at R5
R7 @145c8 @128c8 @755c8 @128c8 @689c32 r96 @32c48 r48 @32c96 r32 @128c8 @755c8 @128c8 
; Measure 25 found at R3
R8 @145c8 @128c8 @243c8 @128c8 @177c32 r96 @32c48 @64c48 @32c96 r32 @129c8 @755c8 @129c8 
; Measure 27 found at R3
R9 @145c8 @128c8 @243c8 @192c16 @64c16 @721c16 @64c16 @192c16 @64c16 @755c16 @64c16 @192c16 @64c16 
; Measure 29 found at R3
; Measure 30 found at R4
; Measure 31 found at R3
R10 @145c8 @128c8 @243c8 @192c16 @64c16 @721c16 @64c16 @192c16 @64c16 @755c32 @64c32 @64c32 @64c32 @192c32 @64c32 @64c32 @64c32 
R11 @657c8 @256c16 @128c16 @243c8 @256c16 @128c16 @145c8 @256c16 @128c16 @243c8 @256c16 @128c16 
R12 @145c8 @256c16 @128c16 @243c8 @256c16 @128c16 @145c8 @256c16 @128c16 @243c8 @256c16 @128c16 
; Measure 35 found at R12
R13 @145c8 @256c16 @128c16 @243c8 @256c16 @128c16 @145c16 @64c16 @256c16 @128c16 @243c8 @256c16 @128c16 
; Measure 37 found at R12
; Measure 38 found at R12
; Measure 39 found at R12
R14 @145c8 @256c16 @128c16 @763c16 @8c16 @264c16 @136c16 @661c16 @4c16 @260c16 @132c16 @755c16 @16c16 @272c16 @144c16 
; Measure 41 found at R11
; Measure 42 found at R12
; Measure 43 found at R12
; Measure 44 found at R13
; Measure 45 found at R12
; Measure 46 found at R12
; Measure 47 found at R12
R15 @145c8 @256c16 @128c16 @243c8 @320c16 @192c16 @725c16 @68c16 @324c16 @196c16 @755c32 @64c32 @80c32 @64c32 @336c32 @64c32 @208c32 @64c32 
R16 @657c8 @256c16 @128c16 @243c8 @256c16 @128c16 @145c8 @256c16 @128c16 @243c8 @512c16 @128c16 
; Measure 50 found at R12
; Measure 51 found at R16
; Measure 52 found at R12
; Measure 53 found at R16
; Measure 54 found at R12
; Measure 55 found at R16
; Measure 56 found at R12
; Measure 57 found at R16
; Measure 58 found at R12
; Measure 59 found at R16
; Measure 60 found at R12
; Measure 61 found at R16
; Measure 62 found at R12
; Measure 63 found at R16
R17 @145c8 @256c16 @128c16 @243c8 @273c16 @128c16 @755c16 @64c16 @277c16 @132c16 @755c16 @64c16 @273c16 @144c16 
; Measure 65 found at R3
; Measure 66 found at R4
; Measure 67 found at R5
; Measure 68 found at R4
; Measure 69 found at R5
; Measure 70 found at R4
; Measure 71 found at R5
; Measure 72 found at R6
; Measure 73 found at R3
; Measure 74 found at R4
; Measure 75 found at R5
; Measure 76 found at R4
; Measure 77 found at R5
; Measure 78 found at R4
; Measure 79 found at R5
; Measure 80 found at R7
; Measure 81 found at R3
; Measure 82 found at R8
; Measure 83 found at R3
; Measure 84 found at R9
; Measure 85 found at R3
; Measure 86 found at R4
; Measure 87 found at R3
; Measure 88 found at R10
; Measure 89 found at R11
; Measure 90 found at R12
; Measure 91 found at R12
; Measure 92 found at R13
; Measure 93 found at R12
; Measure 94 found at R12
; Measure 95 found at R12
; Measure 96 found at R14
; Measure 97 found at R11
; Measure 98 found at R12
; Measure 99 found at R12
; Measure 100 found at R13
; Measure 101 found at R12
; Measure 102 found at R12
; Measure 103 found at R12
; Measure 104 found at R15
; Measure 105 found at R16
; Measure 106 found at R12
; Measure 107 found at R16
; Measure 108 found at R12
; Measure 109 found at R16
; Measure 110 found at R12
; Measure 111 found at R16
; Measure 112 found at R12
; Measure 113 found at R16
; Measure 114 found at R12
; Measure 115 found at R16
; Measure 116 found at R12
; Measure 117 found at R16
; Measure 118 found at R12
; Measure 119 found at R16
; Measure 120 found at R17
; Measure 121 found at R3
; Measure 122 found at R4
; Measure 123 found at R5
; Measure 124 found at R4
; Measure 125 found at R5
; Measure 126 found at R4
