R0 @129c4 @128c4 @257c4 @128c8 @128c8 
R1 @129c4 @128c4 @257c4 @128c4 
; Measure 3 found at R0
R2 @129c8 @128c8 @128c4 @257c4 @128c4 
; Measure 5 found at R0
; Measure 6 found at R1
; Measure 7 found at R0
; Measure 8 found at R2
R3 @129c4 @128c4 @323c4 @128c8 @128c8 
R4 @129c4 @128c4 @323c4 @128c4 
; Measure 11 found at R3
R5 @129c8 @128c8 @128c4 @323c4 @128c4 
; Measure 13 found at R3
; Measure 14 found at R4
; Measure 15 found at R3
R6 @129c8 @130c8 @130c4 @1795c4 @1666c4 
R7 @641c4 @130c8 @128c8 @322c4 @130c8 @129c8 
R8 @128c4 @130c4 @322c4 @130c8 @1c8 
R9 @128c4 @130c4 @322c4 @130c8 @129c8 
R10 @128c8 @128c8 @130c4 @322c4 @130c8 @1c8 
R11 @129c4 @130c8 @128c8 @322c4 @130c8 @129c8 
; Measure 22 found at R8
; Measure 23 found at R9
; Measure 24 found at R10
; Measure 25 found at R11
; Measure 26 found at R8
; Measure 27 found at R9
; Measure 28 found at R10
; Measure 29 found at R11
; Measure 30 found at R8
; Measure 31 found at R9
R12 @129c8 @129c8 @131c8 @1c8 @323c8 @1c8 @131c8 @1c8 
R13 @129c4 @128c4 @128c4 @129c4 
R14 @128c4 @128c4 @129c4 @257c8 @1c8 
R15 @129c4 @128c4 @129c8 @128c8 @128c4 
R16 @129c4 @129c8 @129c8 @512c4 @514c4 
R17 @129c4 @256c4 @129c4 @256c8 @128c8 
R18 @129c4 @256c4 @129c4 @256c4 
R19 @129c4 @256c8 @128c8 @129c4 @256c4 
; Measure 40 found at R19
; Measure 41 found at R17
; Measure 42 found at R18
; Measure 43 found at R19
; Measure 44 found at R19
; Measure 45 found at R17
; Measure 46 found at R18
; Measure 47 found at R19
; Measure 48 found at R19
; Measure 49 found at R17
; Measure 50 found at R18
R20 @129c4 @256c8 @128c8 @129c4 @322c8 @66c8 
R21 @195c4 @322c8 @128c8 @195c8 @66c8 @834c8 @66c8 
R22 @1665c4 @2c4 @640c4 @2c8 @1c8 
R23 @128c4 @2c4 @640c4 @2c8 @1c8 
; Measure 55 found at R23
R24 @128c8 @128c8 @130c4 @512c4 @2c8 @1c8 
R25 @129c4 @2c4 @640c4 @2c8 @1c8 
; Measure 58 found at R23
; Measure 59 found at R23
R26 @128c8 @128c8 @130c4 @580c8 @68c8 @69c8 @69c8 
; Measure 61 found at R25
; Measure 62 found at R23
; Measure 63 found at R23
; Measure 64 found at R24
; Measure 65 found at R25
; Measure 66 found at R23
; Measure 67 found at R23
; Measure 68 found at R26
; Measure 69 found at R7
; Measure 70 found at R8
; Measure 71 found at R9
; Measure 72 found at R10
; Measure 73 found at R11
; Measure 74 found at R8
; Measure 75 found at R9
; Measure 76 found at R10
; Measure 77 found at R11
; Measure 78 found at R8
; Measure 79 found at R9
; Measure 80 found at R10
; Measure 81 found at R11
; Measure 82 found at R8
; Measure 83 found at R9
; Measure 84 found at R12
; Measure 85 found at R7
; Measure 86 found at R8
; Measure 87 found at R9
; Measure 88 found at R10
; Measure 89 found at R11
; Measure 90 found at R8
; Measure 91 found at R9
; Measure 92 found at R10
; Measure 93 found at R11
; Measure 94 found at R8
; Measure 95 found at R9
; Measure 96 found at R10
R27 @514c4 r4 r2 
R28 r2 @1c8 @1c8 @1c8 @1c8 
R29 @129c8 @129c8 @513c8 @1c8 @131c8 @129c8 @513c8 @1c8 
R30 @129c8 @512c8 r4 @514c4 r4 
R31 @513c4 r4 r2 
R32 r2 @1c4 r4 
; Measure 103 found at R31
; Measure 104 found at R32
; Measure 105 found at R31
; Measure 106 found at R32
; Measure 107 found at R31
R33 @1c4 r8 @1c8 r4 @1c4 
; Measure 109 found at R17
; Measure 110 found at R18
; Measure 111 found at R19
; Measure 112 found at R19
; Measure 113 found at R17
; Measure 114 found at R18
; Measure 115 found at R20
; Measure 116 found at R21
R34 @1665c4 @514c4 @130c4 @514c8 @1c8 
R35 @128c4 @514c4 @130c4 @514c8 @1c8 
; Measure 119 found at R35
R36 @128c8 @128c8 @642c4 @2c4 @514c8 @1c8 
R37 @129c4 @514c4 @130c4 @514c8 @1c8 
; Measure 122 found at R35
; Measure 123 found at R35
R38 @196c8 @196c8 @708c4 @68c8 @68c8 @581c8 @69c8 
; Measure 125 found at R37
; Measure 126 found at R35
; Measure 127 found at R35
; Measure 128 found at R36
; Measure 129 found at R37
; Measure 130 found at R35
; Measure 131 found at R35
; Measure 132 found at R38
; Measure 133 found at R34
; Measure 134 found at R35
; Measure 135 found at R35
; Measure 136 found at R36
; Measure 137 found at R37
; Measure 138 found at R35
; Measure 139 found at R35
; Measure 140 found at R38
; Measure 141 found at R37
; Measure 142 found at R35
; Measure 143 found at R35
; Measure 144 found at R36
; Measure 145 found at R37
; Measure 146 found at R35
; Measure 147 found at R35
; Measure 148 found at R38
; Measure 149 found at R0
; Measure 150 found at R1
; Measure 151 found at R0
; Measure 152 found at R2
; Measure 153 found at R0
; Measure 154 found at R1
; Measure 155 found at R0
; Measure 156 found at R2
; Measure 157 found at R3
; Measure 158 found at R4
; Measure 159 found at R3
; Measure 160 found at R5
; Measure 161 found at R3
; Measure 162 found at R4
; Measure 163 found at R3
; Measure 164 found at R6
; Measure 165 found at R7
; Measure 166 found at R8
; Measure 167 found at R9
; Measure 168 found at R10
; Measure 169 found at R11
; Measure 170 found at R8
; Measure 171 found at R9
; Measure 172 found at R10
; Measure 173 found at R11
; Measure 174 found at R8
R39 r1 
